Q99ZW2_4un3_B	041a1bee21c017b07b609a8d98815b93	1306	Pfam	PF16592	REC lobe of CRISPR-associated endonuclease Cas9	178	706	5.8E-173	T	10-04-2024	IPR032240	CRISPR-associated endonuclease Cas9, REC lobe	-	-
Q99ZW2_4un3_B	041a1bee21c017b07b609a8d98815b93	1306	Pfam	PF13395	HNH endonuclease	799	849	1.1E-9	T	10-04-2024	IPR003615	HNH nuclease	-	-
Q99ZW2_4un3_B	041a1bee21c017b07b609a8d98815b93	1306	Pfam	PF16593	Bridge helix of CRISPR-associated endonuclease Cas9	60	91	1.3E-6	T	10-04-2024	IPR032239	CRISPR-associated endonuclease Cas9, bridge helix	-	-
Q99ZW2_4un3_B	041a1bee21c017b07b609a8d98815b93	1306	Pfam	PF16595	PAM-interacting domain of CRISPR-associated endonuclease Cas9	1055	1300	3.9E-41	T	10-04-2024	IPR032237	CRISPR-associated endonuclease Cas9, PAM-interacting domain	-	-
