Q99ZW2_4un3_B_domains_B	d34e8a74aece9429f78ae48b423f49a3	842	Pfam	PF16593	Bridge helix of CRISPR-associated endonuclease Cas9	4	32	4.1E-5	T	10-04-2024	IPR032239	CRISPR-associated endonuclease Cas9, bridge helix	-	-
Q99ZW2_4un3_B_domains_B	d34e8a74aece9429f78ae48b423f49a3	842	Pfam	PF16592	REC lobe of CRISPR-associated endonuclease Cas9	36	561	1.1E-172	T	10-04-2024	IPR032240	CRISPR-associated endonuclease Cas9, REC lobe	-	-
Q99ZW2_4un3_B_domains_B	d34e8a74aece9429f78ae48b423f49a3	842	Pfam	PF16595	PAM-interacting domain of CRISPR-associated endonuclease Cas9	655	838	3.3E-26	T	10-04-2024	IPR032237	CRISPR-associated endonuclease Cas9, PAM-interacting domain	-	-
