RESNR	RESTYPE	RESCHAIN	RESNR_LIG	RESTYPE_LIG	RESCHAIN_LIG	DIST_A-W	DIST_D-W	DON_ANGLE	WATER_ANGLE	PROTISDON	DONOR_IDX	DONORTYPE	ACCEPTOR_IDX	ACCEPTORTYPE	WATER_IDX	LIGCOO	PROTCOO	WATERCOO
1135	ASP	B	8	DT	D	4.03	3.88	108.12	97.43	True	10657	O3	13123	O3	13569	(79.098, 47.746, 21.224)	(81.763, 51.154, 22.48)	(79.905, 48.871, 25.008)
1135	ASP	B	7	DG	D	3.88	3.87	116.22	71.87	False	13114	Npl	10657	O3	13569	(80.343, 45.025, 24.861)	(81.763, 51.154, 22.48)	(79.905, 48.871, 25.008)
1201	TYR	B	6	DG	D	3.18	3.33	168.95	89.53	True	11182	O3	13074	O3	13592	(69.603, 48.625, 32.246)	(66.998, 50.879, 35.37)	(67.922, 47.727, 34.793)
1200	LYS	B	5	DT	D	3.65	4.04	125.07	75.86	True	11170	N3	13056	O3	13592	(70.592, 45.26, 35.161)	(68.967, 51.041, 32.735)	(67.922, 47.727, 34.793)
1218	GLY	B	7	DG	D	3.97	3.70	128.49	97.40	True	11309	Nam	13097	O2	13599	(71.715, 49.391, 24.385)	(67.08, 50.419, 21.73)	(69.804, 52.578, 22.988)
1136	SER	B	6	DG	D	2.92	3.78	107.69	80.46	True	10664	O3	13092	Npl	13632	(78.355, 47.07, 27.798)	(79.949, 51.035, 24.185)	(77.64, 49.755, 26.894)
1118	LYS	B	8	DT	D	2.73	2.53	101.71	77.21	False	13118	O3	10509	O2	13575	(77.947, 52.825, 20.615)	(80.667, 55.578, 18.521)	(78.209, 55.147, 19.636)
